Using ciTools with Generalized Linear Models
…
df <- data.frame(x = x, y = y)
fit <- glm(y ~ x , family = poisson(link = "log"))

As seen previously, the commands in ciTools are pipeable. Here, we compute confidence and prediction intervals for a model fit at the default level of \(95\%\). The warning message only serves to remind the user the precise quantiles cannot be formed for non-continuous distributions.

df_ints <- df %>% 
    add_ci(fit, names = c("lcb", "ucb")) %>%
    add_pi(fit, names = c("lpb", "upb")) %>%
    print()

## Warning in add_pi.glm(., fit, names = c("lpb", "upb")): The response is not
## continuous, so Prediction Intervals are approximate

## # A tibble: 100 x 7
##             x     y      pred       lcb       ucb   lpb   upb
##         <dbl> <int>     <dbl>     <dbl>     <dbl> <dbl> <dbl>
##  1 -2.0519678     2  1.841790  1.456915  2.328337     0     5
##  2 -1.3503557     7  2.579160  2.154182  3.087976     0     6
##  3  0.3743030     2  5.901355  5.429739  6.413934     2    11
##  4  0.4393664     6  6.088538  5.606326  6.612226     2    11
##  5  0.2497295     2  5.558872  5.102056  6.056589     1    11
##  6  2.2621171    18 14.602662 12.360625 17.251372     7    22
##  7  0.7149323    10  6.949438  6.394252  7.552829     2    12
##  8  0.4745805     8  6.192311  5.703425  6.723104     2    12
##  9  1.8237586     7 11.832166 10.331157 13.551256     5    20
## 10 -1.4035391     1  2.514161  2.091482  3.022261     0     6
## # ... with 90 more rows
…
We may also wish to compute response level probabilities and quantiles. ciTools can also handle these estimates with add_probs() and add_quantile() respectively. Since these statistics are formed on the predictive distribution constructed by add_pi(), we also estimates quantiles and probabilities using the parametric bootstrap.

df %>%
    add_probs(fit, q = 10) %>%
    add_quantile(fit, p = 0.4) %>%
    print()

## Warning in add_probs.glm(., fit, q = 10): The response is not continuous,
## so estimated probabilities are only approximate

## Warning in add_quantile.glm(., fit, p = 0.4): The response is not
## continuous, so estimated quantiles are only approximate

## # A tibble: 100 x 5
##             x     y      pred prob_less_than10 quantile0.4
##         <dbl> <int>     <dbl>            <dbl>       <dbl>
##  1 -2.0519678     2  1.841790           1.0000           1
##  2 -1.3503557     7  2.579160           0.9995           2
##  3  0.3743030     2  5.901355           0.9225           5
##  4  0.4393664     6  6.088538           0.9050           5
##  5  0.2497295     2  5.558872           0.9420           5
##  6  2.2621171    18 14.602662           0.1020          13
##  7  0.7149323    10  6.949438           0.8390           6
##  8  0.4745805     8  6.192311           0.9065           5
##  9  1.8237586     7 11.832166           0.2590          11
## 10 -1.4035391     1  2.514161           0.9990           2
## # ... with 90 more rows
…
